{
  "DanceOnCast": true,
  "PvpFlagCheck": true,
  "AutoBanMeepers": true,
  "SitKitItemId": 297274,
  "IPCChannelId": 255,
  "InitConnectionDelay": 30,
  "TeamTimeoutInSeconds": 30.0,
  "SocialAction": 7,
  "PrivateChannelMode": false,
  "PrivateChannelId": 0,
  "PrivateChannelListenerId": 0,
  "PrivateChannelInfoMsg": "This bot is in private channel mode, contact the host for more info."
}